%YAML 1.1
%TAG !u! tag:unity3d.com,2011:
--- !u!74 &7400000
AnimationClip:
  m_ObjectHideFlags: 0
  m_CorrespondingSourceObject: {fileID: 0}
  m_PrefabInstance: {fileID: 0}
  m_PrefabAsset: {fileID: 0}
  m_Name: Big_Star_Walking
  serializedVersion: 6
  m_Legacy: 0
  m_Compressed: 0
  m_UseHighQualityCurve: 1
  m_RotationCurves: []
  m_CompressedRotationCurves: []
  m_EulerCurves: []
  m_PositionCurves: []
  m_ScaleCurves: []
  m_FloatCurves: []
  m_PPtrCurves:
  - curve:
    - time: 0
      value: {fileID: 2350567983402388684, guid: 7212a84b62772c042b6a0780989632ab, type: 3}
    - time: 0.083333336
      value: {fileID: -5576140140511133803, guid: 7212a84b62772c042b6a0780989632ab, type: 3}
    - time: 0.16666667
      value: {fileID: 4680064404445556015, guid: 7212a84b62772c042b6a0780989632ab, type: 3}
    - time: 0.25
      value: {fileID: -9181206638237972405, guid: 7212a84b62772c042b6a0780989632ab, type: 3}
    - time: 0.33333334
      value: {fileID: -5920668922773169002, guid: 7212a84b62772c042b6a0780989632ab, type: 3}
    - time: 0.41666666
      value: {fileID: -3510630925955161915, guid: 7212a84b62772c042b6a0780989632ab, type: 3}
    - time: 0.5
      value: {fileID: -8983096839002391837, guid: 7212a84b62772c042b6a0780989632ab, type: 3}
    - time: 0.5833333
      value: {fileID: -2265312119732703551, guid: 7212a84b62772c042b6a0780989632ab, type: 3}
    - time: 0.6666667
      value: {fileID: -2846630000117936305, guid: 7212a84b62772c042b6a0780989632ab, type: 3}
    - time: 0.75
      value: {fileID: 1397446169589847827, guid: 7212a84b62772c042b6a0780989632ab, type: 3}
    - time: 0.81666666
      value: {fileID: 6677668193495222930, guid: 7212a84b62772c042b6a0780989632ab, type: 3}
    - time: 0.9
      value: {fileID: -7662572560494953969, guid: 7212a84b62772c042b6a0780989632ab, type: 3}
    attribute: m_Sprite
    path: 
    classID: 212
    script: {fileID: 0}
  m_SampleRate: 60
  m_WrapMode: 0
  m_Bounds:
    m_Center: {x: 0, y: 0, z: 0}
    m_Extent: {x: 0, y: 0, z: 0}
  m_ClipBindingConstant:
    genericBindings:
    - serializedVersion: 2
      path: 0
      attribute: 0
      script: {fileID: 0}
      typeID: 212
      customType: 23
      isPPtrCurve: 1
    pptrCurveMapping:
    - {fileID: 2350567983402388684, guid: 7212a84b62772c042b6a0780989632ab, type: 3}
    - {fileID: -5576140140511133803, guid: 7212a84b62772c042b6a0780989632ab, type: 3}
    - {fileID: 4680064404445556015, guid: 7212a84b62772c042b6a0780989632ab, type: 3}
    - {fileID: -9181206638237972405, guid: 7212a84b62772c042b6a0780989632ab, type: 3}
    - {fileID: -5920668922773169002, guid: 7212a84b62772c042b6a0780989632ab, type: 3}
    - {fileID: -3510630925955161915, guid: 7212a84b62772c042b6a0780989632ab, type: 3}
    - {fileID: -8983096839002391837, guid: 7212a84b62772c042b6a0780989632ab, type: 3}
    - {fileID: -2265312119732703551, guid: 7212a84b62772c042b6a0780989632ab, type: 3}
    - {fileID: -2846630000117936305, guid: 7212a84b62772c042b6a0780989632ab, type: 3}
    - {fileID: 1397446169589847827, guid: 7212a84b62772c042b6a0780989632ab, type: 3}
    - {fileID: 6677668193495222930, guid: 7212a84b62772c042b6a0780989632ab, type: 3}
    - {fileID: -7662572560494953969, guid: 7212a84b62772c042b6a0780989632ab, type: 3}
  m_AnimationClipSettings:
    serializedVersion: 2
    m_AdditiveReferencePoseClip: {fileID: 0}
    m_AdditiveReferencePoseTime: 0
    m_StartTime: 0
    m_StopTime: 0.9166666
    m_OrientationOffsetY: 0
    m_Level: 0
    m_CycleOffset: 0
    m_HasAdditiveReferencePose: 0
    m_LoopTime: 1
    m_LoopBlend: 0
    m_LoopBlendOrientation: 0
    m_LoopBlendPositionY: 0
    m_LoopBlendPositionXZ: 0
    m_KeepOriginalOrientation: 0
    m_KeepOriginalPositionY: 1
    m_KeepOriginalPositionXZ: 0
    m_HeightFromFeet: 0
    m_Mirror: 0
  m_EditorCurves: []
  m_EulerEditorCurves: []
  m_HasGenericRootTransform: 0
  m_HasMotionFloatCurves: 0
  m_Events: []
