%YAML 1.1
%TAG !u! tag:unity3d.com,2011:
--- !u!74 &7400000
AnimationClip:
  m_ObjectHideFlags: 0
  m_CorrespondingSourceObject: {fileID: 0}
  m_PrefabInstance: {fileID: 0}
  m_PrefabAsset: {fileID: 0}
  m_Name: FlowerAnimation
  serializedVersion: 6
  m_Legacy: 0
  m_Compressed: 0
  m_UseHighQualityCurve: 1
  m_RotationCurves: []
  m_CompressedRotationCurves: []
  m_EulerCurves: []
  m_PositionCurves: []
  m_ScaleCurves: []
  m_FloatCurves: []
  m_PPtrCurves:
  - curve:
    - time: 0
      value: {fileID: 5537139471199430464, guid: 03a74c54f8375764ab733456ef774af7, type: 3}
    - time: 0.016666668
      value: {fileID: 9064358538546505536, guid: 03a74c54f8375764ab733456ef774af7, type: 3}
    - time: 0.033333335
      value: {fileID: 7022178600037510000, guid: 03a74c54f8375764ab733456ef774af7, type: 3}
    - time: 0.05
      value: {fileID: 3376315490657542566, guid: 03a74c54f8375764ab733456ef774af7, type: 3}
    - time: 0.06666667
      value: {fileID: 3394878648129125398, guid: 03a74c54f8375764ab733456ef774af7, type: 3}
    - time: 0.083333336
      value: {fileID: -159984458102654103, guid: 03a74c54f8375764ab733456ef774af7, type: 3}
    - time: 0.1
      value: {fileID: -3704188154340303293, guid: 03a74c54f8375764ab733456ef774af7, type: 3}
    - time: 0.11666667
      value: {fileID: -915478160241329581, guid: 03a74c54f8375764ab733456ef774af7, type: 3}
    attribute: m_Sprite
    path: 
    classID: 212
    script: {fileID: 0}
  m_SampleRate: 60
  m_WrapMode: 0
  m_Bounds:
    m_Center: {x: 0, y: 0, z: 0}
    m_Extent: {x: 0, y: 0, z: 0}
  m_ClipBindingConstant:
    genericBindings:
    - serializedVersion: 2
      path: 0
      attribute: 0
      script: {fileID: 0}
      typeID: 212
      customType: 23
      isPPtrCurve: 1
    pptrCurveMapping:
    - {fileID: 5537139471199430464, guid: 03a74c54f8375764ab733456ef774af7, type: 3}
    - {fileID: 9064358538546505536, guid: 03a74c54f8375764ab733456ef774af7, type: 3}
    - {fileID: 7022178600037510000, guid: 03a74c54f8375764ab733456ef774af7, type: 3}
    - {fileID: 3376315490657542566, guid: 03a74c54f8375764ab733456ef774af7, type: 3}
    - {fileID: 3394878648129125398, guid: 03a74c54f8375764ab733456ef774af7, type: 3}
    - {fileID: -159984458102654103, guid: 03a74c54f8375764ab733456ef774af7, type: 3}
    - {fileID: -3704188154340303293, guid: 03a74c54f8375764ab733456ef774af7, type: 3}
    - {fileID: -915478160241329581, guid: 03a74c54f8375764ab733456ef774af7, type: 3}
  m_AnimationClipSettings:
    serializedVersion: 2
    m_AdditiveReferencePoseClip: {fileID: 0}
    m_AdditiveReferencePoseTime: 0
    m_StartTime: 0
    m_StopTime: 0.13333334
    m_OrientationOffsetY: 0
    m_Level: 0
    m_CycleOffset: 0
    m_HasAdditiveReferencePose: 0
    m_LoopTime: 1
    m_LoopBlend: 0
    m_LoopBlendOrientation: 0
    m_LoopBlendPositionY: 0
    m_LoopBlendPositionXZ: 0
    m_KeepOriginalOrientation: 0
    m_KeepOriginalPositionY: 1
    m_KeepOriginalPositionXZ: 0
    m_HeightFromFeet: 0
    m_Mirror: 0
  m_EditorCurves: []
  m_EulerEditorCurves: []
  m_HasGenericRootTransform: 0
  m_HasMotionFloatCurves: 0
  m_Events: []
